USUÁRIO,E-MAIL
Abilio Bittencourt,abilio@grupodsrh.com.br
Ana Caetano,anacaetano@grupodsrh.com.br
Ariane Lima,financeiro@grupodsrh.com.br
Ariane Rodrigues,recrutamento@grupodsrh.com.br
Caroline Berti,rh.ms@grupodsrh.com.br
Eduardo Pedroza,eduardo@grupodsrh.com.br
Eliana Reis,elianareis@grupodsrh.com.br
Felipe Monteiro,contasapagar@grupodsrh.com.br
Iago Arruda,iago@grupodsrh.com.br
Igor Pedroso,igor@grupodsrh.com.br
Isabel Veiga,emprego@grupodsrh.com.br
Josielle Rodrigues,oportunidade@grupodsrh.com.br
Larissa Calçado,vagas@grupodsrh.com.br
Larissa Vieira,suporte@grupodsrh.com.br
Luana Assad,rhatend@grupodsrh.com.br
Luciana Ceglia,lucianaceglia@grupodsrh.com.br
Luiza Chaves,emprego@grupodsrh.com.br
Marcelo Teixeira,marcelo@grupodsrh.com.br
Marco Antonio Bouhid,marcoantonio@grupodsrh.com.br
Marina Costa,marina@grupodsrh.com.br
Olavo Freitas,olavo@grupodsrh.com.br
Recepção - Karla / Ayna,recepcao11a@grupodsrh.com.br
Rosana Reis,rosanareis@grupodsrh.com.br
Rubimara Alves,rubimara@grupodsrh.com.br
Sami Souza,selecao@grupodsrh.com.br
Suellen Parreira,adm@grupodsrh.com.br
Tainã Carla Oliveira,talentos.sp@grupodsrh.com.br
Talita Reiser,talita@grupodsrh.com.br
Tatiana Fraga,tatianafraga@grupodsrh.com.br
Tatiane Felisberto,talentos@grupodsrh.com.br
Taynara Pontes,taynara@grupodsrh.com.br
Teresa Fraga,teresafraga@grupodsrh.com.br
Thaiane Aguiar,thaiane@grupodsrh.com.br
Yumi Pojo,yumi@grupodsrh.com.br
