Usuário,Área,Ramal,Celular
Ana Caetano,RH CORP,131,21 99592-6206
Ariane Lima,FIN,152,21 99594-9918
Ariane Rodrigues,R&S-RJ,112,21 99599-4844
Eduardo Pedroza,COML-RJ,101,21 99591-7415
Felipe Monteiro,FIN,155,21 99594-9918
Iago Arruda,COML-RJ,100,21 99591-7415
Igor Pedroso,COML-RJ,104,21 99591-7415
Isabel Veiga,R&S-RJ,119,21 99245-4048
Izabour Martins,DP OPER,163,21 99594-9918
Josielle Rodrigues,R&S-RJ,113,21 99591-3384
Larissa Calçado,R&S-RJ,116,21 99596-2807
Larissa Vieira,SUP,180,21 99130-4958
Luana Assad,RH CORP,136,21 99598-7116
Luciana Ceglia,RH CORP,130,21 99598-7116
Luiza Chaves,R&S-RJ,119,21 99598-9276
Marcelo Teixeira,RH CORP,134,21 99203-1054
Marco Antonio,DIR OPER,140,21 97143-6936
Marina Costa,R&S-RJ,110,21 99599-3653
Olavo Freitas,MKT,143,21 99589-4457
Recepção,ADM,005 / 011 ,21 99594-9918
Rubimara Alves,DP OPER,160,21 99594-9918
Sami Souza,R&S-RJ,111,21 99598-9276
Suelen Parreira,ADM,001,21 99594-9918
Talita Reiser,QUAL,141, 21 99589-7449
Tatiana Fraga,DIR FIN-ADM,151,21 99594-9918
Tatiane Felisberto,R&S-RJ,115,21 97628-9680
Taynara Pontes,DP OPER,161,21 99594-9918
Teresa Fraga,PRES,013,21 99245-3970
Yumi Pojo,QUAL,103 / 142, 21 99589-7449
CELULAR DE SP,,,11 99804-8718
